(footprint "arc_3point"
	(version 20240108)
	(generator "kicad-footprint-generator")
	(layer "F.Cu")
	(attr smd)
	(fp_arc
		(start -4.5 -2)
		(mid -3.5 -2)
		(end -3.5 -1)
		(stroke
			(width 0.12)
			(type solid)
		)
		(layer "F.SilkS")
	)
	(fp_arc
		(start -3.5 -1)
		(mid -4.5 -1)
		(end -4.5 -2)
		(stroke
			(width 0.12)
			(type solid)
		)
		(layer "F.SilkS")
	)
	(fp_arc
		(start -2.5 -1.5)
		(mid -1.5 -2.5)
		(end -0.5 -1.5)
		(stroke
			(width 0.12)
			(type solid)
		)
		(layer "F.SilkS")
	)
	(fp_arc
		(start -0.707107 -0.707107)
		(mid 0 -1)
		(end 0.707107 -0.707107)
		(stroke
			(width 0.12)
			(type solid)
		)
		(layer "F.SilkS")
	)
	(fp_arc
		(start -0.5 -1.5)
		(mid -1.5 -0.5)
		(end -2.5 -1.5)
		(stroke
			(width 0.12)
			(type solid)
		)
		(layer "F.SilkS")
	)
	(fp_arc
		(start -0.5 0.5)
		(mid -0.5 -0.5)
		(end 0.5 -0.5)
		(stroke
			(width 0.12)
			(type solid)
		)
		(layer "F.SilkS")
	)
	(fp_arc
		(start -0.5 0.5)
		(mid -0.5 -0.5)
		(end 0.5 -0.5)
		(stroke
			(width 0.12)
			(type solid)
		)
		(layer "F.SilkS")
	)
	(fp_arc
		(start 0 1)
		(mid -0.707107 0.707107)
		(end -1 0)
		(stroke
			(width 0.12)
			(type solid)
		)
		(layer "F.SilkS")
	)
	(fp_arc
		(start 1 0)
		(mid 0.707107 0.707107)
		(end 0 1)
		(stroke
			(width 0.12)
			(type solid)
		)
		(layer "F.SilkS")
	)
)
