(footprint "exposed_paste_autogen_case1"
	(version 20240108)
	(generator "kicad-footprint-generator")
	(layer "F.Cu")
	(attr smd)
	(pad "" smd custom
		(at -2 -2.5)
		(size 0.770649 0.770649)
		(layers "F.Paste")
		(options
			(clearance outline)
			(anchor circle)
		)
		(primitives
			(gr_poly
				(pts
					(xy -0.564358 -0.403113)
					(xy 0.564358 -0.403113)
					(xy 0.564358 0.352799)
					(xy 0.514044 0.403113)
					(xy -0.514044 0.403113)
					(xy -0.564358 0.352799)
				)
				(width 0)
			)
		)
	)
	(pad "" smd custom
		(at -2 -1.5)
		(size 0.770649 0.770649)
		(layers "F.Paste")
		(options
			(clearance outline)
			(anchor circle)
		)
		(primitives
			(gr_poly
				(pts
					(xy -0.564358 -0.352799)
					(xy -0.514044 -0.403113)
					(xy 0.514044 -0.403113)
					(xy 0.564358 -0.352799)
					(xy 0.564358 0.403113)
					(xy -0.564358 0.403113)
				)
				(width 0)
			)
		)
	)
	(pad "" smd rect
		(at 0 2.5)
		(size 1.61 0.81)
		(layers "F.Paste")
	)
	(pad "" smd rect
		(at 0 3)
		(size 2 2)
		(layers "F.Mask")
	)
	(pad "" smd rect
		(at 0 3.5)
		(size 1.61 0.81)
		(layers "F.Paste")
	)
	(pad "" smd custom
		(at 2 -2.5)
		(size 0.770649 0.770649)
		(layers "F.Paste")
		(options
			(clearance outline)
			(anchor circle)
		)
		(primitives
			(gr_poly
				(pts
					(xy -0.564358 -0.403113)
					(xy 0.564358 -0.403113)
					(xy 0.564358 0.352799)
					(xy 0.514044 0.403113)
					(xy -0.514044 0.403113)
					(xy -0.564358 0.352799)
				)
				(width 0)
			)
		)
	)
	(pad "" smd custom
		(at 2 -1.5)
		(size 0.770649 0.770649)
		(layers "F.Paste")
		(options
			(clearance outline)
			(anchor circle)
		)
		(primitives
			(gr_poly
				(pts
					(xy -0.564358 -0.352799)
					(xy -0.514044 -0.403113)
					(xy 0.514044 -0.403113)
					(xy 0.564358 -0.352799)
					(xy 0.564358 0.403113)
					(xy -0.564358 0.403113)
				)
				(width 0)
			)
		)
	)
	(pad "3" thru_hole circle
		(at -2.7 -2)
		(size 0.6 0.6)
		(drill 0.3)
		(property pad_prop_heatsink)
		(layers "*.Cu")
		(remove_unused_layers no)
	)
	(pad "3" smd rect
		(at -2 -2)
		(size 2 0.6)
		(property pad_prop_heatsink)
		(layers "B.Cu")
		(zone_connect 2)
	)
	(pad "3" smd rect
		(at -2 -2)
		(size 2 2)
		(property pad_prop_heatsink)
		(layers "F.Cu" "F.Mask")
		(zone_connect 2)
	)
	(pad "3" thru_hole circle
		(at -1.3 -2)
		(size 0.6 0.6)
		(drill 0.3)
		(property pad_prop_heatsink)
		(layers "*.Cu")
		(remove_unused_layers no)
	)
	(pad "3" thru_hole circle
		(at -1.2 3)
		(size 0.6 0.6)
		(drill 0.3)
		(property pad_prop_heatsink)
		(layers "*.Cu")
		(remove_unused_layers no)
	)
	(pad "3" smd rect
		(at 0 3)
		(size 3 0.6)
		(property pad_prop_heatsink)
		(layers "B.Cu")
		(zone_connect 2)
	)
	(pad "3" smd rect
		(at 0 3)
		(size 3 3)
		(property pad_prop_heatsink)
		(layers "F.Cu")
		(zone_connect 2)
	)
	(pad "3" thru_hole circle
		(at 1.2 3)
		(size 0.6 0.6)
		(drill 0.3)
		(property pad_prop_heatsink)
		(layers "*.Cu")
		(remove_unused_layers no)
	)
	(pad "3" thru_hole circle
		(at 1.3 -2)
		(size 0.6 0.6)
		(drill 0.3)
		(property pad_prop_heatsink)
		(layers "*.Cu")
		(remove_unused_layers no)
	)
	(pad "3" smd rect
		(at 2 -2)
		(size 2 0.6)
		(property pad_prop_heatsink)
		(layers "B.Cu")
		(zone_connect 2)
	)
	(pad "3" smd rect
		(at 2 -2)
		(size 2 2)
		(property pad_prop_heatsink)
		(layers "F.Cu" "F.Mask")
		(zone_connect 2)
	)
	(pad "3" thru_hole circle
		(at 2.7 -2)
		(size 0.6 0.6)
		(drill 0.3)
		(property pad_prop_heatsink)
		(layers "*.Cu")
		(remove_unused_layers no)
	)
)
