(footprint "exposed_paste_autogen_inner_x_only_and_outer"
	(version 20240108)
	(generator "kicad-footprint-generator")
	(layer "F.Cu")
	(attr smd)
	(pad "" smd rect
		(at -1.5 -1.125)
		(size 0.806226 0.604669)
		(layers "F.Paste")
	)
	(pad "" smd custom
		(at -1.5 -0.375)
		(size 0.574561 0.574561)
		(layers "F.Paste")
		(options
			(clearance outline)
			(anchor circle)
		)
		(primitives
			(gr_poly
				(pts
					(xy -0.403113 -0.302335)
					(xy 0.403113 -0.302335)
					(xy 0.403113 0.259755)
					(xy 0.360533 0.302335)
					(xy -0.403113 0.302335)
				)
				(width 0)
			)
		)
	)
	(pad "" smd custom
		(at -1.5 0.375)
		(size 0.574561 0.574561)
		(layers "F.Paste")
		(options
			(clearance outline)
			(anchor circle)
		)
		(primitives
			(gr_poly
				(pts
					(xy -0.403113 -0.302335)
					(xy 0.360533 -0.302335)
					(xy 0.403113 -0.259755)
					(xy 0.403113 0.302335)
					(xy -0.403113 0.302335)
				)
				(width 0)
			)
		)
	)
	(pad "" smd rect
		(at -1.5 1.125)
		(size 0.806226 0.604669)
		(layers "F.Paste")
	)
	(pad "" smd rect
		(at -0.75 -1.125)
		(size 0.403113 0.604669)
		(layers "F.Paste")
	)
	(pad "" smd custom
		(at -0.75 -0.375)
		(size 0.33875 0.33875)
		(layers "F.Paste")
		(options
			(clearance outline)
			(anchor circle)
		)
		(primitives
			(gr_poly
				(pts
					(xy -0.201556 -0.302335)
					(xy 0.201556 -0.302335)
					(xy 0.201556 0.302335)
					(xy -0.110533 0.302335)
					(xy -0.201556 0.211312)
				)
				(width 0)
			)
		)
	)
	(pad "" smd custom
		(at -0.75 0.375)
		(size 0.33875 0.33875)
		(layers "F.Paste")
		(options
			(clearance outline)
			(anchor circle)
		)
		(primitives
			(gr_poly
				(pts
					(xy -0.201556 -0.211312)
					(xy -0.110533 -0.302335)
					(xy 0.201556 -0.302335)
					(xy 0.201556 0.302335)
					(xy -0.201556 0.302335)
				)
				(width 0)
			)
		)
	)
	(pad "" smd rect
		(at -0.75 1.125)
		(size 0.403113 0.604669)
		(layers "F.Paste")
	)
	(pad "" smd rect
		(at -0.25 -1.125)
		(size 0.403113 0.604669)
		(layers "F.Paste")
	)
	(pad "" smd custom
		(at -0.25 -0.375)
		(size 0.33875 0.33875)
		(layers "F.Paste")
		(options
			(clearance outline)
			(anchor circle)
		)
		(primitives
			(gr_poly
				(pts
					(xy -0.201556 -0.302335)
					(xy 0.201556 -0.302335)
					(xy 0.201556 0.211312)
					(xy 0.110533 0.302335)
					(xy -0.201556 0.302335)
				)
				(width 0)
			)
		)
	)
	(pad "" smd custom
		(at -0.25 0.375)
		(size 0.33875 0.33875)
		(layers "F.Paste")
		(options
			(clearance outline)
			(anchor circle)
		)
		(primitives
			(gr_poly
				(pts
					(xy -0.201556 -0.302335)
					(xy 0.110533 -0.302335)
					(xy 0.201556 -0.211312)
					(xy 0.201556 0.302335)
					(xy -0.201556 0.302335)
				)
				(width 0)
			)
		)
	)
	(pad "" smd rect
		(at -0.25 1.125)
		(size 0.403113 0.604669)
		(layers "F.Paste")
	)
	(pad "" smd rect
		(at 0.25 -1.125)
		(size 0.403113 0.604669)
		(layers "F.Paste")
	)
	(pad "" smd custom
		(at 0.25 -0.375)
		(size 0.33875 0.33875)
		(layers "F.Paste")
		(options
			(clearance outline)
			(anchor circle)
		)
		(primitives
			(gr_poly
				(pts
					(xy -0.201556 -0.302335)
					(xy 0.201556 -0.302335)
					(xy 0.201556 0.302335)
					(xy -0.110533 0.302335)
					(xy -0.201556 0.211312)
				)
				(width 0)
			)
		)
	)
	(pad "" smd custom
		(at 0.25 0.375)
		(size 0.33875 0.33875)
		(layers "F.Paste")
		(options
			(clearance outline)
			(anchor circle)
		)
		(primitives
			(gr_poly
				(pts
					(xy -0.201556 -0.211312)
					(xy -0.110533 -0.302335)
					(xy 0.201556 -0.302335)
					(xy 0.201556 0.302335)
					(xy -0.201556 0.302335)
				)
				(width 0)
			)
		)
	)
	(pad "" smd rect
		(at 0.25 1.125)
		(size 0.403113 0.604669)
		(layers "F.Paste")
	)
	(pad "" smd rect
		(at 0.75 -1.125)
		(size 0.403113 0.604669)
		(layers "F.Paste")
	)
	(pad "" smd custom
		(at 0.75 -0.375)
		(size 0.33875 0.33875)
		(layers "F.Paste")
		(options
			(clearance outline)
			(anchor circle)
		)
		(primitives
			(gr_poly
				(pts
					(xy -0.201556 -0.302335)
					(xy 0.201556 -0.302335)
					(xy 0.201556 0.211312)
					(xy 0.110533 0.302335)
					(xy -0.201556 0.302335)
				)
				(width 0)
			)
		)
	)
	(pad "" smd custom
		(at 0.75 0.375)
		(size 0.33875 0.33875)
		(layers "F.Paste")
		(options
			(clearance outline)
			(anchor circle)
		)
		(primitives
			(gr_poly
				(pts
					(xy -0.201556 -0.302335)
					(xy 0.110533 -0.302335)
					(xy 0.201556 -0.211312)
					(xy 0.201556 0.302335)
					(xy -0.201556 0.302335)
				)
				(width 0)
			)
		)
	)
	(pad "" smd rect
		(at 0.75 1.125)
		(size 0.403113 0.604669)
		(layers "F.Paste")
	)
	(pad "" smd rect
		(at 1.5 -1.125)
		(size 0.806226 0.604669)
		(layers "F.Paste")
	)
	(pad "" smd custom
		(at 1.5 -0.375)
		(size 0.574561 0.574561)
		(layers "F.Paste")
		(options
			(clearance outline)
			(anchor circle)
		)
		(primitives
			(gr_poly
				(pts
					(xy -0.403113 -0.302335)
					(xy 0.403113 -0.302335)
					(xy 0.403113 0.302335)
					(xy -0.360533 0.302335)
					(xy -0.403113 0.259755)
				)
				(width 0)
			)
		)
	)
	(pad "" smd custom
		(at 1.5 0.375)
		(size 0.574561 0.574561)
		(layers "F.Paste")
		(options
			(clearance outline)
			(anchor circle)
		)
		(primitives
			(gr_poly
				(pts
					(xy -0.403113 -0.259755)
					(xy -0.360533 -0.302335)
					(xy 0.403113 -0.302335)
					(xy 0.403113 0.302335)
					(xy -0.403113 0.302335)
				)
				(width 0)
			)
		)
	)
	(pad "" smd rect
		(at 1.5 1.125)
		(size 0.806226 0.604669)
		(layers "F.Paste")
	)
	(pad "3" thru_hole circle
		(at -1 0)
		(size 0.6 0.6)
		(drill 0.3)
		(property pad_prop_heatsink)
		(layers "*.Cu")
		(remove_unused_layers no)
	)
	(pad "3" thru_hole circle
		(at 0 0)
		(size 0.6 0.6)
		(drill 0.3)
		(property pad_prop_heatsink)
		(layers "*.Cu")
		(remove_unused_layers no)
	)
	(pad "3" smd rect
		(at 0 0)
		(size 2.6 0.6)
		(property pad_prop_heatsink)
		(layers "B.Cu")
		(zone_connect 2)
	)
	(pad "3" smd rect
		(at 0 0)
		(size 4 3)
		(property pad_prop_heatsink)
		(layers "F.Cu" "F.Mask")
		(zone_connect 2)
	)
	(pad "3" thru_hole circle
		(at 1 0)
		(size 0.6 0.6)
		(drill 0.3)
		(property pad_prop_heatsink)
		(layers "*.Cu")
		(remove_unused_layers no)
	)
)
