(footprint "exposed_paste_autogen_4x4"
	(version 20240108)
	(generator "kicad-footprint-generator")
	(layer "F.Cu")
	(attr smd)
	(pad "" smd custom
		(at -1.3875 -1.3875)
		(size 0.523835 0.523835)
		(layers "F.Paste")
		(options
			(clearance outline)
			(anchor circle)
		)
		(primitives
			(gr_poly
				(pts
					(xy -0.300156 -0.300156)
					(xy 0.300156 -0.300156)
					(xy 0.300156 0.192001)
					(xy 0.192001 0.300156)
					(xy -0.300156 0.300156)
				)
				(width 0)
			)
		)
	)
	(pad "" smd custom
		(at -1.3875 -0.5)
		(size 0.541766 0.541766)
		(layers "F.Paste")
		(options
			(clearance outline)
			(anchor circle)
		)
		(primitives
			(gr_poly
				(pts
					(xy -0.300156 -0.387298)
					(xy 0.217359 -0.387298)
					(xy 0.300156 -0.304501)
					(xy 0.300156 0.304501)
					(xy 0.217359 0.387298)
					(xy -0.300156 0.387298)
				)
				(width 0)
			)
		)
	)
	(pad "" smd custom
		(at -1.3875 0.5)
		(size 0.541766 0.541766)
		(layers "F.Paste")
		(options
			(clearance outline)
			(anchor circle)
		)
		(primitives
			(gr_poly
				(pts
					(xy -0.300156 -0.387298)
					(xy 0.217359 -0.387298)
					(xy 0.300156 -0.304501)
					(xy 0.300156 0.304501)
					(xy 0.217359 0.387298)
					(xy -0.300156 0.387298)
				)
				(width 0)
			)
		)
	)
	(pad "" smd custom
		(at -1.3875 1.3875)
		(size 0.523835 0.523835)
		(layers "F.Paste")
		(options
			(clearance outline)
			(anchor circle)
		)
		(primitives
			(gr_poly
				(pts
					(xy -0.300156 -0.300156)
					(xy 0.192001 -0.300156)
					(xy 0.300156 -0.192001)
					(xy 0.300156 0.300156)
					(xy -0.300156 0.300156)
				)
				(width 0)
			)
		)
	)
	(pad "" smd custom
		(at -0.5 -1.3875)
		(size 0.541766 0.541766)
		(layers "F.Paste")
		(options
			(clearance outline)
			(anchor circle)
		)
		(primitives
			(gr_poly
				(pts
					(xy -0.387298 -0.300156)
					(xy 0.387298 -0.300156)
					(xy 0.387298 0.217359)
					(xy 0.304501 0.300156)
					(xy -0.304501 0.300156)
					(xy -0.387298 0.217359)
				)
				(width 0)
			)
		)
	)
	(pad "" smd custom
		(at -0.5 -0.5)
		(size 0.733981 0.733981)
		(layers "F.Paste")
		(options
			(clearance outline)
			(anchor circle)
		)
		(primitives
			(gr_poly
				(pts
					(xy -0.387298 -0.329859)
					(xy -0.329859 -0.387298)
					(xy 0.329859 -0.387298)
					(xy 0.387298 -0.329859)
					(xy 0.387298 0.329859)
					(xy 0.329859 0.387298)
					(xy -0.329859 0.387298)
					(xy -0.387298 0.329859)
				)
				(width 0)
			)
		)
	)
	(pad "" smd custom
		(at -0.5 0.5)
		(size 0.733981 0.733981)
		(layers "F.Paste")
		(options
			(clearance outline)
			(anchor circle)
		)
		(primitives
			(gr_poly
				(pts
					(xy -0.387298 -0.329859)
					(xy -0.329859 -0.387298)
					(xy 0.329859 -0.387298)
					(xy 0.387298 -0.329859)
					(xy 0.387298 0.329859)
					(xy 0.329859 0.387298)
					(xy -0.329859 0.387298)
					(xy -0.387298 0.329859)
				)
				(width 0)
			)
		)
	)
	(pad "" smd custom
		(at -0.5 1.3875)
		(size 0.541766 0.541766)
		(layers "F.Paste")
		(options
			(clearance outline)
			(anchor circle)
		)
		(primitives
			(gr_poly
				(pts
					(xy -0.387298 -0.217359)
					(xy -0.304501 -0.300156)
					(xy 0.304501 -0.300156)
					(xy 0.387298 -0.217359)
					(xy 0.387298 0.300156)
					(xy -0.387298 0.300156)
				)
				(width 0)
			)
		)
	)
	(pad "" smd custom
		(at 0.5 -1.3875)
		(size 0.541766 0.541766)
		(layers "F.Paste")
		(options
			(clearance outline)
			(anchor circle)
		)
		(primitives
			(gr_poly
				(pts
					(xy -0.387298 -0.300156)
					(xy 0.387298 -0.300156)
					(xy 0.387298 0.217359)
					(xy 0.304501 0.300156)
					(xy -0.304501 0.300156)
					(xy -0.387298 0.217359)
				)
				(width 0)
			)
		)
	)
	(pad "" smd custom
		(at 0.5 -0.5)
		(size 0.733981 0.733981)
		(layers "F.Paste")
		(options
			(clearance outline)
			(anchor circle)
		)
		(primitives
			(gr_poly
				(pts
					(xy -0.387298 -0.329859)
					(xy -0.329859 -0.387298)
					(xy 0.329859 -0.387298)
					(xy 0.387298 -0.329859)
					(xy 0.387298 0.329859)
					(xy 0.329859 0.387298)
					(xy -0.329859 0.387298)
					(xy -0.387298 0.329859)
				)
				(width 0)
			)
		)
	)
	(pad "" smd custom
		(at 0.5 0.5)
		(size 0.733981 0.733981)
		(layers "F.Paste")
		(options
			(clearance outline)
			(anchor circle)
		)
		(primitives
			(gr_poly
				(pts
					(xy -0.387298 -0.329859)
					(xy -0.329859 -0.387298)
					(xy 0.329859 -0.387298)
					(xy 0.387298 -0.329859)
					(xy 0.387298 0.329859)
					(xy 0.329859 0.387298)
					(xy -0.329859 0.387298)
					(xy -0.387298 0.329859)
				)
				(width 0)
			)
		)
	)
	(pad "" smd custom
		(at 0.5 1.3875)
		(size 0.541766 0.541766)
		(layers "F.Paste")
		(options
			(clearance outline)
			(anchor circle)
		)
		(primitives
			(gr_poly
				(pts
					(xy -0.387298 -0.217359)
					(xy -0.304501 -0.300156)
					(xy 0.304501 -0.300156)
					(xy 0.387298 -0.217359)
					(xy 0.387298 0.300156)
					(xy -0.387298 0.300156)
				)
				(width 0)
			)
		)
	)
	(pad "" smd custom
		(at 1.3875 -1.3875)
		(size 0.523835 0.523835)
		(layers "F.Paste")
		(options
			(clearance outline)
			(anchor circle)
		)
		(primitives
			(gr_poly
				(pts
					(xy -0.300156 -0.300156)
					(xy 0.300156 -0.300156)
					(xy 0.300156 0.300156)
					(xy -0.192001 0.300156)
					(xy -0.300156 0.192001)
				)
				(width 0)
			)
		)
	)
	(pad "" smd custom
		(at 1.3875 -0.5)
		(size 0.541766 0.541766)
		(layers "F.Paste")
		(options
			(clearance outline)
			(anchor circle)
		)
		(primitives
			(gr_poly
				(pts
					(xy -0.300156 -0.304501)
					(xy -0.217359 -0.387298)
					(xy 0.300156 -0.387298)
					(xy 0.300156 0.387298)
					(xy -0.217359 0.387298)
					(xy -0.300156 0.304501)
				)
				(width 0)
			)
		)
	)
	(pad "" smd custom
		(at 1.3875 0.5)
		(size 0.541766 0.541766)
		(layers "F.Paste")
		(options
			(clearance outline)
			(anchor circle)
		)
		(primitives
			(gr_poly
				(pts
					(xy -0.300156 -0.304501)
					(xy -0.217359 -0.387298)
					(xy 0.300156 -0.387298)
					(xy 0.300156 0.387298)
					(xy -0.217359 0.387298)
					(xy -0.300156 0.304501)
				)
				(width 0)
			)
		)
	)
	(pad "" smd custom
		(at 1.3875 1.3875)
		(size 0.523835 0.523835)
		(layers "F.Paste")
		(options
			(clearance outline)
			(anchor circle)
		)
		(primitives
			(gr_poly
				(pts
					(xy -0.300156 -0.192001)
					(xy -0.192001 -0.300156)
					(xy 0.300156 -0.300156)
					(xy 0.300156 0.300156)
					(xy -0.300156 0.300156)
				)
				(width 0)
			)
		)
	)
	(pad "33" thru_hole circle
		(at -1 -1)
		(size 0.5 0.5)
		(drill 0.2)
		(property pad_prop_heatsink)
		(layers "*.Cu")
		(remove_unused_layers no)
	)
	(pad "33" thru_hole circle
		(at -1 0)
		(size 0.5 0.5)
		(drill 0.2)
		(property pad_prop_heatsink)
		(layers "*.Cu")
		(remove_unused_layers no)
	)
	(pad "33" thru_hole circle
		(at -1 1)
		(size 0.5 0.5)
		(drill 0.2)
		(property pad_prop_heatsink)
		(layers "*.Cu")
		(remove_unused_layers no)
	)
	(pad "33" thru_hole circle
		(at 0 -1)
		(size 0.5 0.5)
		(drill 0.2)
		(property pad_prop_heatsink)
		(layers "*.Cu")
		(remove_unused_layers no)
	)
	(pad "33" thru_hole circle
		(at 0 0)
		(size 0.5 0.5)
		(drill 0.2)
		(property pad_prop_heatsink)
		(layers "*.Cu")
		(remove_unused_layers no)
	)
	(pad "33" smd rect
		(at 0 0)
		(size 2.5 2.5)
		(property pad_prop_heatsink)
		(layers "B.Cu")
		(zone_connect 2)
	)
	(pad "33" smd rect
		(at 0 0)
		(size 3.55 3.55)
		(property pad_prop_heatsink)
		(layers "F.Cu" "F.Mask")
		(zone_connect 2)
	)
	(pad "33" thru_hole circle
		(at 0 1)
		(size 0.5 0.5)
		(drill 0.2)
		(property pad_prop_heatsink)
		(layers "*.Cu")
		(remove_unused_layers no)
	)
	(pad "33" thru_hole circle
		(at 1 -1)
		(size 0.5 0.5)
		(drill 0.2)
		(property pad_prop_heatsink)
		(layers "*.Cu")
		(remove_unused_layers no)
	)
	(pad "33" thru_hole circle
		(at 1 0)
		(size 0.5 0.5)
		(drill 0.2)
		(property pad_prop_heatsink)
		(layers "*.Cu")
		(remove_unused_layers no)
	)
	(pad "33" thru_hole circle
		(at 1 1)
		(size 0.5 0.5)
		(drill 0.2)
		(property pad_prop_heatsink)
		(layers "*.Cu")
		(remove_unused_layers no)
	)
)
