(footprint "exposed_paste_autogen_inner_y_only_and_outer"
	(version 20240108)
	(generator "kicad-footprint-generator")
	(layer "F.Cu")
	(attr smd)
	(pad "" smd rect
		(at -1.125 -2.25)
		(size 0.604669 0.403113)
		(layers "F.Paste")
	)
	(pad "" smd rect
		(at -1.125 -1.5)
		(size 0.604669 0.806226)
		(layers "F.Paste")
	)
	(pad "" smd rect
		(at -1.125 -0.5)
		(size 0.604669 0.806226)
		(layers "F.Paste")
	)
	(pad "" smd rect
		(at -1.125 0.5)
		(size 0.604669 0.806226)
		(layers "F.Paste")
	)
	(pad "" smd rect
		(at -1.125 1.5)
		(size 0.604669 0.806226)
		(layers "F.Paste")
	)
	(pad "" smd rect
		(at -1.125 2.25)
		(size 0.604669 0.403113)
		(layers "F.Paste")
	)
	(pad "" smd custom
		(at -0.375 -2.25)
		(size 0.18875 0.18875)
		(layers "F.Paste")
		(options
			(clearance outline)
			(anchor circle)
		)
		(primitives
			(gr_poly
				(pts
					(xy -0.302335 -0.201556)
					(xy 0.302335 -0.201556)
					(xy 0.302335 -0.101599)
					(xy -0.000821 0.201556)
					(xy -0.302335 0.201556)
				)
				(width 0)
			)
		)
	)
	(pad "" smd custom
		(at -0.375 -1.5)
		(size 0.424561 0.424561)
		(layers "F.Paste")
		(options
			(clearance outline)
			(anchor circle)
		)
		(primitives
			(gr_poly
				(pts
					(xy -0.302335 -0.403113)
					(xy 0.047623 -0.403113)
					(xy 0.302335 -0.148401)
					(xy 0.302335 0.403113)
					(xy -0.302335 0.403113)
				)
				(width 0)
			)
		)
	)
	(pad "" smd custom
		(at -0.375 -0.5)
		(size 0.424561 0.424561)
		(layers "F.Paste")
		(options
			(clearance outline)
			(anchor circle)
		)
		(primitives
			(gr_poly
				(pts
					(xy -0.302335 -0.403113)
					(xy 0.302335 -0.403113)
					(xy 0.302335 0.148401)
					(xy 0.047623 0.403113)
					(xy -0.302335 0.403113)
				)
				(width 0)
			)
		)
	)
	(pad "" smd custom
		(at -0.375 0.5)
		(size 0.424561 0.424561)
		(layers "F.Paste")
		(options
			(clearance outline)
			(anchor circle)
		)
		(primitives
			(gr_poly
				(pts
					(xy -0.302335 -0.403113)
					(xy 0.047623 -0.403113)
					(xy 0.302335 -0.148401)
					(xy 0.302335 0.403113)
					(xy -0.302335 0.403113)
				)
				(width 0)
			)
		)
	)
	(pad "" smd custom
		(at -0.375 1.5)
		(size 0.424561 0.424561)
		(layers "F.Paste")
		(options
			(clearance outline)
			(anchor circle)
		)
		(primitives
			(gr_poly
				(pts
					(xy -0.302335 -0.403113)
					(xy 0.302335 -0.403113)
					(xy 0.302335 0.148401)
					(xy 0.047623 0.403113)
					(xy -0.302335 0.403113)
				)
				(width 0)
			)
		)
	)
	(pad "" smd custom
		(at -0.375 2.25)
		(size 0.18875 0.18875)
		(layers "F.Paste")
		(options
			(clearance outline)
			(anchor circle)
		)
		(primitives
			(gr_poly
				(pts
					(xy -0.302335 -0.201556)
					(xy -0.000821 -0.201556)
					(xy 0.302335 0.101599)
					(xy 0.302335 0.201556)
					(xy -0.302335 0.201556)
				)
				(width 0)
			)
		)
	)
	(pad "" smd custom
		(at 0.375 -2.25)
		(size 0.18875 0.18875)
		(layers "F.Paste")
		(options
			(clearance outline)
			(anchor circle)
		)
		(primitives
			(gr_poly
				(pts
					(xy -0.302335 -0.201556)
					(xy 0.302335 -0.201556)
					(xy 0.302335 0.201556)
					(xy 0.000821 0.201556)
					(xy -0.302335 -0.101599)
				)
				(width 0)
			)
		)
	)
	(pad "" smd custom
		(at 0.375 -1.5)
		(size 0.424561 0.424561)
		(layers "F.Paste")
		(options
			(clearance outline)
			(anchor circle)
		)
		(primitives
			(gr_poly
				(pts
					(xy -0.302335 -0.148401)
					(xy -0.047623 -0.403113)
					(xy 0.302335 -0.403113)
					(xy 0.302335 0.403113)
					(xy -0.302335 0.403113)
				)
				(width 0)
			)
		)
	)
	(pad "" smd custom
		(at 0.375 -0.5)
		(size 0.424561 0.424561)
		(layers "F.Paste")
		(options
			(clearance outline)
			(anchor circle)
		)
		(primitives
			(gr_poly
				(pts
					(xy -0.302335 -0.403113)
					(xy 0.302335 -0.403113)
					(xy 0.302335 0.403113)
					(xy -0.047623 0.403113)
					(xy -0.302335 0.148401)
				)
				(width 0)
			)
		)
	)
	(pad "" smd custom
		(at 0.375 0.5)
		(size 0.424561 0.424561)
		(layers "F.Paste")
		(options
			(clearance outline)
			(anchor circle)
		)
		(primitives
			(gr_poly
				(pts
					(xy -0.302335 -0.148401)
					(xy -0.047623 -0.403113)
					(xy 0.302335 -0.403113)
					(xy 0.302335 0.403113)
					(xy -0.302335 0.403113)
				)
				(width 0)
			)
		)
	)
	(pad "" smd custom
		(at 0.375 1.5)
		(size 0.424561 0.424561)
		(layers "F.Paste")
		(options
			(clearance outline)
			(anchor circle)
		)
		(primitives
			(gr_poly
				(pts
					(xy -0.302335 -0.403113)
					(xy 0.302335 -0.403113)
					(xy 0.302335 0.403113)
					(xy -0.047623 0.403113)
					(xy -0.302335 0.148401)
				)
				(width 0)
			)
		)
	)
	(pad "" smd custom
		(at 0.375 2.25)
		(size 0.18875 0.18875)
		(layers "F.Paste")
		(options
			(clearance outline)
			(anchor circle)
		)
		(primitives
			(gr_poly
				(pts
					(xy -0.302335 0.101599)
					(xy 0.000821 -0.201556)
					(xy 0.302335 -0.201556)
					(xy 0.302335 0.201556)
					(xy -0.302335 0.201556)
				)
				(width 0)
			)
		)
	)
	(pad "" smd rect
		(at 1.125 -2.25)
		(size 0.604669 0.403113)
		(layers "F.Paste")
	)
	(pad "" smd rect
		(at 1.125 -1.5)
		(size 0.604669 0.806226)
		(layers "F.Paste")
	)
	(pad "" smd rect
		(at 1.125 -0.5)
		(size 0.604669 0.806226)
		(layers "F.Paste")
	)
	(pad "" smd rect
		(at 1.125 0.5)
		(size 0.604669 0.806226)
		(layers "F.Paste")
	)
	(pad "" smd rect
		(at 1.125 1.5)
		(size 0.604669 0.806226)
		(layers "F.Paste")
	)
	(pad "" smd rect
		(at 1.125 2.25)
		(size 0.604669 0.403113)
		(layers "F.Paste")
	)
	(pad "3" thru_hole circle
		(at 0 -2)
		(size 0.6 0.6)
		(drill 0.3)
		(property pad_prop_heatsink)
		(layers "*.Cu")
		(remove_unused_layers no)
	)
	(pad "3" thru_hole circle
		(at 0 0)
		(size 0.6 0.6)
		(drill 0.3)
		(property pad_prop_heatsink)
		(layers "*.Cu")
		(remove_unused_layers no)
	)
	(pad "3" smd rect
		(at 0 0)
		(size 0.6 4.6)
		(property pad_prop_heatsink)
		(layers "B.Cu")
		(zone_connect 2)
	)
	(pad "3" smd rect
		(at 0 0)
		(size 3 5)
		(property pad_prop_heatsink)
		(layers "F.Cu" "F.Mask")
		(zone_connect 2)
	)
	(pad "3" thru_hole circle
		(at 0 2)
		(size 0.6 0.6)
		(drill 0.3)
		(property pad_prop_heatsink)
		(layers "*.Cu")
		(remove_unused_layers no)
	)
)
