(footprint "test_rotate_circle"
	(version 20240108)
	(generator "kicad-footprint-generator")
	(layer "F.Cu")
	(attr smd)
	(fp_circle
		(center 1.767949 -1.866025)
		(end 2.767949 -1.866025)
		(stroke
			(width 0.12)
			(type solid)
		)
		(fill none)
		(layer "F.SilkS")
	)
	(fp_circle
		(center 1.809329 -2.448288)
		(end 2.809329 -2.448288)
		(stroke
			(width 0.12)
			(type solid)
		)
		(fill none)
		(layer "F.SilkS")
	)
	(fp_circle
		(center 1.87868 -1.292893)
		(end 2.87868 -1.292893)
		(stroke
			(width 0.12)
			(type solid)
		)
		(fill none)
		(layer "F.SilkS")
	)
	(fp_circle
		(center 2 -3)
		(end 3 -3)
		(stroke
			(width 0.12)
			(type solid)
		)
		(fill none)
		(layer "F.SilkS")
	)
	(fp_circle
		(center 2.133975 -0.767949)
		(end 3.133975 -0.767949)
		(stroke
			(width 0.12)
			(type solid)
		)
		(fill none)
		(layer "F.SilkS")
	)
	(fp_circle
		(center 2.326967 -3.483564)
		(end 3.326967 -3.483564)
		(stroke
			(width 0.12)
			(type solid)
		)
		(fill none)
		(layer "F.SilkS")
	)
	(fp_circle
		(center 2.516436 -0.326967)
		(end 3.516436 -0.326967)
		(stroke
			(width 0.12)
			(type solid)
		)
		(fill none)
		(layer "F.SilkS")
	)
	(fp_circle
		(center 2.767949 -3.866025)
		(end 3.767949 -3.866025)
		(stroke
			(width 0.12)
			(type solid)
		)
		(fill none)
		(layer "F.SilkS")
	)
	(fp_circle
		(center 3 0)
		(end 4 0)
		(stroke
			(width 0.12)
			(type solid)
		)
		(fill none)
		(layer "F.SilkS")
	)
	(fp_circle
		(center 3.292893 -4.12132)
		(end 4.292893 -4.12132)
		(stroke
			(width 0.12)
			(type solid)
		)
		(fill none)
		(layer "F.SilkS")
	)
	(fp_circle
		(center 3.551712 0.190671)
		(end 4.551712 0.190671)
		(stroke
			(width 0.12)
			(type solid)
		)
		(fill none)
		(layer "F.SilkS")
	)
	(fp_circle
		(center 3.866025 -4.232051)
		(end 4.866025 -4.232051)
		(stroke
			(width 0.12)
			(type solid)
		)
		(fill none)
		(layer "F.SilkS")
	)
	(fp_circle
		(center 4.133975 0.232051)
		(end 5.133975 0.232051)
		(stroke
			(width 0.12)
			(type solid)
		)
		(fill none)
		(layer "F.SilkS")
	)
	(fp_circle
		(center 4.448288 -4.190671)
		(end 5.448288 -4.190671)
		(stroke
			(width 0.12)
			(type solid)
		)
		(fill none)
		(layer "F.SilkS")
	)
	(fp_circle
		(center 4.707107 0.12132)
		(end 5.707107 0.12132)
		(stroke
			(width 0.12)
			(type solid)
		)
		(fill none)
		(layer "F.SilkS")
	)
	(fp_circle
		(center 5 -4)
		(end 6 -4)
		(stroke
			(width 0.12)
			(type solid)
		)
		(fill none)
		(layer "F.SilkS")
	)
	(fp_circle
		(center 5.232051 -0.133975)
		(end 6.232051 -0.133975)
		(stroke
			(width 0.12)
			(type solid)
		)
		(fill none)
		(layer "F.SilkS")
	)
	(fp_circle
		(center 5.483564 -3.673033)
		(end 6.483564 -3.673033)
		(stroke
			(width 0.12)
			(type solid)
		)
		(fill none)
		(layer "F.SilkS")
	)
	(fp_circle
		(center 5.673033 -0.516436)
		(end 6.673033 -0.516436)
		(stroke
			(width 0.12)
			(type solid)
		)
		(fill none)
		(layer "F.SilkS")
	)
	(fp_circle
		(center 5.866025 -3.232051)
		(end 6.866025 -3.232051)
		(stroke
			(width 0.12)
			(type solid)
		)
		(fill none)
		(layer "F.SilkS")
	)
	(fp_circle
		(center 6 -1)
		(end 7 -1)
		(stroke
			(width 0.12)
			(type solid)
		)
		(fill none)
		(layer "F.SilkS")
	)
	(fp_circle
		(center 6.12132 -2.707107)
		(end 7.12132 -2.707107)
		(stroke
			(width 0.12)
			(type solid)
		)
		(fill none)
		(layer "F.SilkS")
	)
	(fp_circle
		(center 6.190671 -1.551712)
		(end 7.190671 -1.551712)
		(stroke
			(width 0.12)
			(type solid)
		)
		(fill none)
		(layer "F.SilkS")
	)
	(fp_circle
		(center 6.232051 -2.133975)
		(end 7.232051 -2.133975)
		(stroke
			(width 0.12)
			(type solid)
		)
		(fill none)
		(layer "F.SilkS")
	)
)
